1 0.892593 0.991770
2 0.892593 0.991770
3 0.892593 0.991770
4 0.892593 0.991770
5 0.892593 0.991770
6 0.892593 0.991770
7 0.892593 0.991770
8 0.892593 0.991770
9 0.892593 0.991770
10 0.892593 0.991770
11 0.892593 0.991770
12 0.892593 0.991770
13 0.892593 0.991770
14 0.892593 0.991770
15 0.892593 0.991770
16 0.892593 0.991770
17 0.892593 0.991770
18 0.892593 0.991770
19 0.892593 0.991770
20 0.892593 0.991770
21 0.892593 0.991770
22 0.892593 0.991770
23 0.892593 0.991770
24 0.892593 0.991770
25 0.892593 0.991770
26 0.892593 0.991770
27 0.892593 0.991770
28 0.892593 0.991770
29 0.892593 0.991770
30 0.892593 0.991770
31 0.892593 0.991770
32 0.892593 0.991770
33 0.892593 0.991770
34 0.892593 0.991770
35 0.892593 0.991770
36 0.895911 0.987705
37 0.899254 0.983673
38 0.904135 0.975659
39 0.908222 0.957661
40 0.913725 0.932000
41 0.916667 0.920319
42 0.923387 0.905138
43 0.924025 0.887574
44 0.923395 0.879684
45 0.922432 0.867850
46 0.921776 0.859961
47 0.923241 0.852362
48 0.922414 0.842520
49 0.921739 0.834646
50 0.924612 0.817647
51 0.925843 0.806262
52 0.925000 0.796477
53 0.928074 0.779727
54 0.926714 0.764133
55 0.925301 0.748538
56 0.926290 0.733463
57 0.928753 0.707364
58 0.926702 0.686047
59 0.923913 0.658915
60 0.922636 0.622824
61 0.919881 0.599613
62 0.915888 0.568665
63 0.918033 0.539499
64 0.917241 0.511538
65 0.914179 0.470250
66 0.910931 0.431034
67 0.905405 0.384321
68 0.900000 0.343511
69 0.902703 0.317490
70 0.905325 0.289773
71 0.909677 0.266038
72 0.917241 0.250000
73 0.932331 0.231776
74 0.926829 0.213084
75 0.921053 0.196262
76 0.926606 0.188433
77 0.916667 0.164179
78 0.932432 0.128015
79 0.955882 0.120148
80 0.953846 0.114603
81 0.966667 0.107011
82 0.957447 0.083026
83 0.950000 0.070111
84 0.969697 0.058932
85 0.965517 0.051565
86 1.000000 0.040441
87 1.000000 0.038603
88 1.000000 0.033088
89 1.000000 0.029412
90 1.000000 0.025735
91 1.000000 0.025735
92 1.000000 0.022059
93 1.000000 0.016544
94 1.000000 0.012868
95 1.000000 0.009191
96 1.000000 0.007353
97 1.000000 0.003676
98 1.000000 0.001838
99 1.000000 0.001838
100 1.000000 0.000000
