1 0.897770 0.987730
2 0.897770 0.987730
3 0.897770 0.987730
4 0.897770 0.987730
5 0.897770 0.987730
6 0.897770 0.987730
7 0.897770 0.987730
8 0.897770 0.987730
9 0.897770 0.987730
10 0.897770 0.987730
11 0.897770 0.987730
12 0.897770 0.987730
13 0.897770 0.987730
14 0.897770 0.987730
15 0.897770 0.987730
16 0.897770 0.987730
17 0.897770 0.987730
18 0.897770 0.987730
19 0.897770 0.987730
20 0.897770 0.987730
21 0.897770 0.987730
22 0.897770 0.987730
23 0.897770 0.987730
24 0.897770 0.987730
25 0.897770 0.987730
26 0.897770 0.987730
27 0.897770 0.987730
28 0.897770 0.987730
29 0.897770 0.987730
30 0.897770 0.987730
31 0.897770 0.987730
32 0.897770 0.987730
33 0.897770 0.987730
34 0.897770 0.987730
35 0.897770 0.987730
36 0.897770 0.987730
37 0.897770 0.987730
38 0.902804 0.981707
39 0.906015 0.975708
40 0.908222 0.957661
41 0.916016 0.936128
42 0.920477 0.918651
43 0.919679 0.908730
44 0.921053 0.900990
45 0.920082 0.889109
46 0.918750 0.873267
47 0.920168 0.865613
48 0.921444 0.856016
49 0.922414 0.842520
50 0.921739 0.834646
51 0.920530 0.820866
52 0.922049 0.813359
53 0.923251 0.801961
54 0.922018 0.788235
55 0.923077 0.774951
56 0.923990 0.759766
57 0.922892 0.748047
58 0.922141 0.740234
59 0.923664 0.706226
60 0.921053 0.680934
61 0.923706 0.656977
62 0.920228 0.625969
63 0.921922 0.592664
64 0.920382 0.556840
65 0.919732 0.528846
66 0.920000 0.484674
67 0.915709 0.457854
68 0.910204 0.427203
69 0.900901 0.383142
70 0.897436 0.333969
71 0.887006 0.299618
72 0.893491 0.287072
73 0.897436 0.265152
74 0.899281 0.235849
75 0.906977 0.219925
76 0.918033 0.209738
77 0.906542 0.181648
78 0.910000 0.170093
79 0.902174 0.155140
80 0.888889 0.134579
81 0.939394 0.114815
82 0.932203 0.101852
83 0.924528 0.090741
84 0.934783 0.079482
85 0.939394 0.057196
86 0.931035 0.049815
87 0.950000 0.034991
88 1.000000 0.031250
89 1.000000 0.031250
90 1.000000 0.027574
91 1.000000 0.025735
92 1.000000 0.023897
93 1.000000 0.022059
94 1.000000 0.018382
95 1.000000 0.016544
96 1.000000 0.011029
97 1.000000 0.007353
98 1.000000 0.003676
99 1.000000 0.003676
100 1.000000 0.001838
