5	0.220409
7	0.380818
9	0.730469
11	1.15977
13	1.3211
15	1.82594
17	2.49139
19	3.01244
21	3.52784
23	4.16854
25	4.85005
27	5.81837
29	6.31025
31	7.44078
33	8.20218
35	9.57712
37	10.085
39	11.0015
41	12.3279
43	13.5367
45	14.6018
47	15.7474
49	17.1583
51	18.2993